%YAML 1.1
%TAG !u! tag:unity3d.com,2011:
--- !u!114 &11400000
MonoBehaviour:
  m_ObjectHideFlags: 0
  m_PrefabParentObject: {fileID: 0}
  m_PrefabInternal: {fileID: 0}
  m_GameObject: {fileID: 0}
  m_Enabled: 1
  m_EditorHideFlags: 0
  m_Script: {fileID: 11500000, guid: a3ef60871c5723f4ab0a83ca088bf714, type: 3}
  m_Name: Assault Rifle
  m_EditorClassIdentifier: 
  weaponName: Assault Rifle
  cost: 350
  description: Long range and damage, and medium firerate
  fireRate: 0.25
  damage: 50
  range: 75
  gunMaterial: {fileID: 2100000, guid: 67529b26e1bb5ad4a94d21632247e677, type: 2}
